<?xml version="1.0" encoding="UTF-8" standalone="no"?>
<svg width="123px" height="30px" viewBox="0 0 123 30" version="1.1" xmlns="http://www.w3.org/2000/svg" xmlns:xlink="http://www.w3.org/1999/xlink">
    <!-- Generator: Sketch 48.1 (47250) - http://www.bohemiancoding.com/sketch -->
    <title>logo-01</title>
    <desc>Created with Sketch.</desc>
    <defs></defs>
    <g id="账户设置-双重验证-1" stroke="none" stroke-width="1" fill="none" fill-rule="evenodd" transform="translate(-20.000000, -15.000000)">
        <g id="logo-01" transform="translate(20.000000, 15.000000)" fill="#F3CA82" fill-rule="nonzero">
            <path d="M26.5116279,13.8697312 L23.4895771,12.021048 L22.017799,9.86763677 C20.5852684,7.89706236 17.8968206,7.47044316 15.9540736,8.91282237 L13.0693887,11.0662336 L8.73254953,9.64416957 C23.7446852,5.31703196 26.1584012,1.76187195 26.1584012,1.76187195 C26.1584012,1.76187195 19.3882223,-2.93093925 11.1658892,3.00109916 C2.47258706,9.27849597 0,13.036808 0,13.036808 C0,13.036808 2.0016181,17.9327712 6.80942626,14.7026544 L12.3629353,18.7656944 L17.9164443,13.3212208 L14.4430482,20.2893344 L16.5035374,21.7926592 L12.1274508,30 L23.8035564,21.6504528 L20.0554284,18.521912 C20.2516654,18.3797056 26.5116279,13.8697312 26.5116279,13.8697312 Z M4.17984955,13.0977536 C3.748128,13.0977536 3.39490128,12.73208 3.39490128,12.2851456 C3.39490128,11.8382112 3.748128,11.4725376 4.17984955,11.4725376 C4.6115711,11.4725376 4.96479782,11.8382112 4.96479782,12.2851456 C4.96479782,12.73208 4.6115711,13.0977536 4.17984955,13.0977536 Z M25.2557107,1.86344795 C25.2557107,1.86344795 17.4454754,-1.52919045 7.57475083,6.23121596 C7.57475083,6.23121596 16.5820323,-2.91062405 25.2557107,1.86344795 Z" id="Shape"></path>
            <g id="Group" transform="translate(30.697674, 6.279070)">
                <path d="M63.9021022,5.55416903 C63.3591957,5.08451503 62.6755357,4.83947816 61.8712298,4.83947816 C61.348431,4.83947816 60.8457398,4.94157686 60.3832639,5.14577425 C59.9006804,5.34997164 59.3577739,5.6971072 58.7143292,6.20760068 C59.1566975,4.88031764 59.3979892,4.20646625 59.8403575,2.87918321 C60.2022951,1.79693704 60.3832639,1.26602382 60.7452016,0.183777652 C59.4382045,0.183777652 58.7746522,0.183777652 57.4676551,0.183777652 C55.6177516,5.61542825 53.7879557,11.0470788 51.9380522,16.4787294 C53.2450493,16.4787294 53.9086016,16.4787294 55.2155987,16.4787294 C55.4568904,15.7844583 55.5775363,15.4373227 55.7987204,14.7430516 C56.1204428,15.416903 56.4622728,15.886557 56.8041028,16.1111741 C57.1459328,16.356211 57.6084087,16.4787294 58.1513151,16.4787294 C59.5588504,16.4787294 60.8658475,15.8457175 62.1125216,14.6001134 C63.1179039,13.5791265 63.8618869,12.3335224 64.364578,10.8428815 C64.766731,9.65853659 64.9275922,8.59671015 64.8270539,7.65740216 C64.7466233,6.75893364 64.4450086,6.04424277 63.9021022,5.55416903 Z M59.7599269,13.4361883 C59.3376663,14.1100397 58.8952981,14.5796937 58.4328222,14.8859898 C58.2116381,15.028928 57.930131,15.1106069 57.6285163,15.1106069 C56.9448563,15.1106069 56.4823804,14.559274 56.2410887,13.4770278 C56.904641,11.5371526 57.5480857,9.61769711 58.2116381,7.67782189 C59.1768051,6.55473625 60.0615416,6.00340329 60.9060628,6.00340329 C61.1875698,6.00340329 61.4087539,6.08508225 61.5495075,6.24844016 C61.7505839,6.49347703 61.8511222,6.92229155 61.8310145,7.53488372 C61.8109069,8.14747589 61.5897228,9.08678389 61.1473545,10.3528077 C60.6446633,11.74135 60.2022951,12.7623369 59.7599269,13.4361883 Z" id="Shape"></path>
                <path d="M75.8259368,5.55416903 C75.2830304,5.08451503 74.5993704,4.83947816 73.7950645,4.83947816 C73.2722657,4.83947816 72.7695745,4.94157686 72.3070986,5.14577425 C71.8446227,5.34997164 71.2816086,5.6971072 70.6381639,6.20760068 C71.0805321,4.88031764 71.3218239,4.20646625 71.7641921,2.87918321 C72.1261298,1.79693704 72.3070986,1.26602382 72.6690363,0.183777652 C71.3620392,0.183777652 70.6984868,0.183777652 69.3914898,0.183777652 C67.5415863,5.61542825 65.7117904,11.0470788 63.8618869,16.4787294 C65.1688839,16.4787294 65.8324363,16.4787294 67.1394333,16.4787294 C67.3807251,15.7844583 67.501371,15.4373227 67.7225551,14.7430516 C68.0442774,15.416903 68.3861074,15.886557 68.7279374,16.1111741 C69.0697674,16.356211 69.5322433,16.4787294 70.0751498,16.4787294 C71.4826851,16.4787294 72.7896821,15.8457175 74.0363563,14.6001134 C75.0417386,13.5791265 75.7857215,12.3335224 76.2884127,10.8428815 C76.6905657,9.65853659 76.8514268,8.59671015 76.7508886,7.65740216 C76.6905657,6.75893364 76.3688433,6.04424277 75.8259368,5.55416903 Z M71.7038692,13.4361883 C71.2816086,14.1100397 70.8392404,14.5796937 70.3767645,14.8859898 C70.1555804,15.028928 69.8740733,15.1106069 69.5724586,15.1106069 C68.8887986,15.1106069 68.4263227,14.559274 68.185031,13.4770278 C68.8485833,11.5371526 69.492028,9.61769711 70.1555804,7.67782189 C71.1207474,6.55473625 72.0054839,6.00340329 72.8500051,6.00340329 C73.1315121,6.00340329 73.3526963,6.08508225 73.4934498,6.24844016 C73.6945263,6.49347703 73.7950645,6.92229155 73.7749568,7.53488372 C73.7548492,8.14747589 73.5336651,9.08678389 73.0912968,10.3528077 C72.5886057,11.74135 72.1462374,12.7623369 71.7038692,13.4361883 Z" id="Shape"></path>
                <path d="M83.1451203,0.163357913 C82.6424292,0.163357913 82.1598456,0.347135564 81.6772621,0.694271129 C81.2147862,1.04140669 80.8930639,1.49064095 80.7120951,1.98071469 C80.5512339,2.49120817 80.5713415,2.92002269 80.8126333,3.26715825 C81.0539251,3.61429382 81.4158627,3.79807147 81.9185539,3.79807147 C82.421245,3.79807147 82.9038286,3.61429382 83.3864121,3.26715825 C83.8689956,2.92002269 84.190718,2.49120817 84.3515792,1.98071469 C84.5124403,1.47022121 84.4923327,1.04140669 84.2711486,0.694271129 C84.0298568,0.347135564 83.6679192,0.163357913 83.1451203,0.163357913 Z" id="Shape"></path>
                <path d="M75.986798,16.5195689 C77.2937951,16.5195689 77.9372398,16.5195689 79.2442368,16.5195689 C79.5458515,15.6006807 79.7067127,15.1514464 80.0284351,14.2325581 C81.0137098,11.3329552 81.9989845,8.4129325 82.9842592,5.51332955 C81.6772621,5.51332955 81.0338174,5.51332955 79.7268204,5.51332955 C78.4801462,9.16846285 77.2334721,12.8440159 75.986798,16.5195689 Z" id="Shape"></path>
                <path d="M91.5300091,6.51389677 C91.6908703,6.04424277 91.7713009,5.81962564 91.9321621,5.34997164 C90.8865644,5.34997164 90.3637656,5.34997164 89.3382756,5.34997164 C89.8811821,3.73681225 90.1626891,2.94044243 90.7055956,1.32728304 C90.5447344,1.32728304 90.4643038,1.32728304 90.3235503,1.32728304 C90.1425815,1.53148043 89.9616127,1.73567782 89.7806439,1.91945547 C88.2122474,3.5530346 86.3422362,4.94157686 84.3917945,6.10550199 C84.3314715,6.2688599 84.3113639,6.35053885 84.2510409,6.51389677 C84.814055,6.51389677 85.1156697,6.51389677 85.6786839,6.51389677 C85.0151315,8.49461146 84.3314715,10.4753261 83.6679192,12.4560408 C83.2657662,13.6403857 83.0646898,14.3550766 83.0445821,14.6205332 C83.0244745,15.0901872 83.165228,15.5394214 83.5271656,15.9273965 C83.8689956,16.3153715 84.3917945,16.5195689 85.0955621,16.5195689 C86.523205,16.5195689 87.7899868,15.7640386 88.9361227,14.2529779 C88.8355844,14.1508792 88.7752615,14.08962 88.6747233,13.9875213 C87.950848,14.7634714 87.3476186,15.1514464 86.8449274,15.1514464 C86.7242815,15.1514464 86.6036356,15.0901872 86.4829897,14.9880885 C86.3824515,14.8655701 86.3221286,14.7226319 86.3221286,14.5388542 C86.3221286,14.3550766 86.4427744,13.9466818 86.6438509,13.3136699 C87.4079415,11.0470788 88.1720321,8.7804878 88.9562303,6.51389677 C89.9817203,6.51389677 90.5045191,6.51389677 91.5300091,6.51389677 Z" id="Shape"></path>
                <path d="M13.5927694,9.33182076 C13.1504011,8.84174702 12.245557,8.39251276 10.8581294,8.0453772 C12.3662029,7.69824163 13.5123388,7.2081679 14.2764294,6.61599546 C15.04052,6.02382303 15.5432111,5.3295519 15.8046105,4.55360182 C16.0459023,3.81849121 16.06601,3.12422008 15.8448258,2.49120817 C15.6236417,1.83777652 15.2013811,1.34770278 14.5579364,1.02098695 C13.9144917,0.694271129 12.6879253,0.530913216 10.8581294,0.530913216 C8.70661115,0.530913216 7.64090586,0.530913216 5.48938763,0.530913216 C3.6796994,5.86046512 1.89011882,11.1695973 0.080430588,16.4991492 C2.03087235,16.4991492 3.96120646,16.4991492 5.91164822,16.4991492 C7.7012288,16.5808281 10.0136082,16.0703347 11.5417894,15.0697674 C12.7482482,14.2733976 13.5927694,13.2932501 13.9949223,12.0884855 C14.3367523,10.9653999 14.2161064,10.0465116 13.5927694,9.33182076 Z M8.82725703,1.42938174 C9.97339291,1.42938174 10.7575911,1.53148043 11.1999594,1.7765173 C11.6423276,2.02155417 11.9238347,2.34826999 12.0444806,2.79750425 C12.1651264,3.24673851 12.1048035,3.81849121 11.8635117,4.53318208 C11.62222,5.24787294 11.28039,5.81962564 10.8581294,6.2688599 C10.4157611,6.71809416 9.89296232,7.08564946 9.28973291,7.33068633 C8.6865035,7.5757232 7.82187468,7.69824163 6.7159541,7.69824163 C7.3996141,5.63584799 8.12348939,3.53261486 8.82725703,1.42938174 Z M8.3446735,14.4571753 C8.10338174,14.6817924 7.84198233,14.8655701 7.56047527,15.028928 C6.79638469,15.4373227 6.0322941,15.6619399 5.28831116,15.6619399 C5.26820351,15.6619399 5.26820351,15.6619399 5.24809587,15.6619399 C4.76551234,15.6619399 4.50411293,15.6619399 4.0215294,15.6619399 C4.80572763,13.3340896 5.61003351,11.0062394 6.39423175,8.65796937 C7.60069057,8.65796937 8.44521174,8.76006807 8.96801056,9.00510493 C9.49080938,9.2501418 9.81253174,9.65853659 9.97339291,10.250709 C10.1141464,10.8428815 10.0538235,11.5167328 9.81253174,12.2518434 C9.51091703,13.068633 9.0283335,13.8037436 8.3446735,14.4571753 Z" id="Shape"></path>
                <path d="M21.2135676,0.163357913 C20.7108764,0.163357913 20.2282929,0.347135564 19.7457094,0.694271129 C19.2832335,1.04140669 18.9615111,1.49064095 18.7805423,1.98071469 C18.6196811,2.49120817 18.6397888,2.92002269 18.8810805,3.26715825 C19.1223723,3.61429382 19.4843099,3.79807147 19.9870011,3.79807147 C20.4896923,3.79807147 20.9722758,3.61429382 21.4548593,3.26715825 C21.9374429,2.92002269 22.2591652,2.49120817 22.4200264,1.98071469 C22.5808876,1.47022121 22.5607799,1.04140669 22.3395958,0.694271129 C22.0983041,0.347135564 21.7363664,0.163357913 21.2135676,0.163357913 Z" id="Shape"></path>
                <path d="M14.0552453,16.5195689 C15.3622423,16.5195689 16.005687,16.5195689 17.3126841,16.5195689 C17.6142988,15.6006807 17.7751599,15.1514464 18.0968823,14.2325581 C19.082157,11.3329552 20.0674317,8.4129325 21.0527064,5.51332955 C19.7457094,5.51332955 19.1022646,5.51332955 17.7952676,5.51332955 C16.5485935,9.16846285 15.3019194,12.8440159 14.0552453,16.5195689 Z" id="Shape"></path>
                <path d="M28.7539352,1.32728304 C28.593074,1.32728304 28.5126434,1.32728304 28.3718899,1.32728304 C28.1909211,1.53148043 28.0099523,1.73567782 27.8289834,1.91945547 C26.260587,3.5530346 24.3905758,4.94157686 22.4401341,6.10550199 C22.3798111,6.2688599 22.3597035,6.35053885 22.2993805,6.51389677 C22.8623946,6.51389677 23.1640093,6.51389677 23.7270235,6.51389677 C23.0634711,8.49461146 22.3798111,10.4753261 21.7162588,12.4560408 C21.3141058,13.6403857 21.1130293,14.3550766 21.0929217,14.6205332 C21.0728141,15.0901872 21.2135676,15.5394214 21.5755052,15.9273965 C21.9173352,16.3153715 22.4401341,16.5195689 23.1439017,16.5195689 C24.5715446,16.5195689 25.8383264,15.7640386 26.9844623,14.2529779 C26.883924,14.1508792 26.8236011,14.08962 26.7230629,13.9875213 C25.9991876,14.7634714 25.3959582,15.1514464 24.893267,15.1514464 C24.7726211,15.1514464 24.6519752,15.0901872 24.5313293,14.9880885 C24.4307911,14.8655701 24.3704682,14.7226319 24.3704682,14.5388542 C24.3704682,14.3550766 24.491114,13.9466818 24.6921905,13.3136699 C25.4562811,11.0470788 26.2203717,8.7804878 27.0045699,6.51389677 C28.0501676,6.51389677 28.5729664,6.51389677 29.5984564,6.51389677 C29.7593176,6.04424277 29.8397481,5.81962564 30.0006093,5.34997164 C28.9550117,5.34997164 28.4322129,5.34997164 27.4067229,5.34997164 C27.9496293,3.73681225 28.2110287,2.94044243 28.7539352,1.32728304 Z" id="Shape"></path>
                <path d="M50.6712704,6.39137833 C50.3897634,5.88088486 50.068041,5.53374929 49.726211,5.3295519 C49.384381,5.12535451 48.9621204,5.02325581 48.4393216,5.02325581 C47.6350157,5.02325581 46.7904946,5.26829268 45.9258657,5.73794668 C45.0612369,6.20760068 44.256931,6.92229155 43.5330558,7.86159955 C42.8091805,8.80090754 42.2461663,9.86273398 41.8440134,11.0470788 C41.3413222,12.5377198 41.240784,13.7833239 41.5625063,14.8043108 C41.9445516,16.0499149 42.8493958,16.6829268 44.2368234,16.6829268 C44.7797299,16.6829268 45.3226363,16.5604084 45.8253275,16.3153715 C46.3481263,16.0703347 46.991571,15.6211004 47.7757693,14.947249 C47.5344775,15.6415201 47.4138316,15.9886557 47.1926475,16.6829268 C48.4996446,16.6829268 49.1631969,16.6829268 50.470194,16.6829268 C51.7972987,12.7827567 53.1042957,8.8825865 54.4314004,4.98241634 C53.1244034,4.98241634 52.460851,4.98241634 51.153854,4.98241634 C50.9527775,5.55416903 50.8522393,5.84004538 50.6712704,6.39137833 Z M48.2181375,13.6608054 C47.2328628,14.7430516 46.4084493,15.2943846 45.7247893,15.2943846 C45.4030669,15.2943846 45.1818828,15.2127056 45.0612369,15.0697674 C44.8199452,14.7838911 44.6992993,14.2938174 44.7194069,13.619966 C44.7395146,12.9461146 44.9808063,11.9251276 45.4633899,10.5365854 C45.8856505,9.27056154 46.307911,8.33125355 46.6899563,7.71866137 C47.0720016,7.1060692 47.4540469,6.67725468 47.8360922,6.43221781 C48.077384,6.2688599 48.3387834,6.18718094 48.6202904,6.18718094 C49.4648116,6.18718094 49.9675028,6.7385139 50.1685793,7.86159955 C49.5251346,9.80147476 48.8615822,11.7209302 48.2181375,13.6608054 Z" id="Shape"></path>
                <path d="M39.7327105,8.0453772 C40.5973393,7.71866137 41.3614299,7.24900737 42.0249822,6.59557572 C42.6282116,6.00340329 43.0504722,5.37039138 43.3118716,4.71695973 C43.3319793,4.67612025 43.3520869,4.61486103 43.3721946,4.57402155 C43.3721946,4.57402155 43.3721946,4.55360182 43.3721946,4.55360182 C43.3721946,4.55360182 43.3721946,4.55360182 43.3721946,4.55360182 C43.3721946,4.55360182 43.3721946,4.55360182 43.3721946,4.55360182 C43.3721946,4.55360182 43.3721946,4.53318208 43.3721946,4.53318208 C43.3923022,4.4923426 43.4124099,4.43108338 43.4124099,4.3902439 C43.5933787,3.73681225 43.5933787,3.10380034 43.3923022,2.51162791 C43.1711181,1.878616 42.7488575,1.38854226 42.0853052,1.06182643 C41.4418605,0.735110607 40.1951864,0.571752694 38.3854981,0.571752694 C37.7018381,0.571752694 37.3600081,0.571752694 36.6763481,0.571752694 C35.2084899,0.571752694 34.4846146,0.571752694 33.0167564,0.571752694 C31.2070681,5.90130459 29.4174876,11.2104368 27.6077993,16.5399887 C29.0756576,16.5399887 29.7995329,16.5399887 31.2673911,16.5399887 C32.1722352,13.8854226 33.0770793,11.2104368 33.9819234,8.55587067 C34.1025693,8.55587067 34.1628923,8.55587067 34.2835381,8.55587067 C34.8465522,11.2104368 35.4095664,13.8854226 35.9725805,16.5399887 C37.4404387,16.5399887 38.164314,16.5399887 39.6321722,16.5399887 C39.0691581,13.8445831 38.4860364,11.1491775 37.9230222,8.45377198 C38.6670052,8.35167328 39.2702346,8.20873511 39.7327105,8.0453772 Z M36.3948411,1.42938174 C37.1790393,1.42938174 37.8023764,1.47022121 38.2447446,1.59273965 C38.4458211,1.63357913 38.6066822,1.71525808 38.7273281,1.7765173 C39.1696964,2.02155417 39.4512034,2.36868973 39.5919569,2.83834373 C39.7126028,3.28757799 39.6723875,3.85933069 39.4310958,4.55360182 C39.189804,5.24787294 38.8680816,5.81962564 38.4257134,6.2688599 C37.9833452,6.71809416 37.4605464,7.06522972 36.8573169,7.33068633 C36.6763481,7.41236529 36.455164,7.4736245 36.2339799,7.51446398 C35.7111811,7.61656268 35.0677364,7.67782189 34.2835381,7.67782189 C35.0074134,5.57458877 35.7111811,3.51219512 36.3948411,1.42938174 Z" id="Shape"></path>
            </g>
        </g>
    </g>
</svg>